1 10 20
100 200 125
201 210 89
900 1000 174
10 1 20
200 100 125
210 201 89
1000 900 174
1000 2000 182
2500 4500 238
2045 3050 217
268362 272899 407
641213 905721 525
793497 452629 509
140349 139049 344
815293 489884 509
50175 834492 509
96283 773630 509
668562 360250 509
645760 764512 504
137438 29586 354
456785 729859 509
217942 177431 386
139880 10037 354
653576 188800 509
390705 912377 525
928026 335302 525
350767 576970 470
603603 312435 470
83380 248608 443
104763 777861 509
771472 82020 509
644655 494000 509
286935 912316 525
60260 811039 509
526655 404374 470
908844 415289 525
540025 579994 452
562423 402256 470
155506 323469 443
758603 381443 509
55162 626612 509
418916 513103 470
374390 502777 449
486729 132083 449
103807 270359 443
131576 823066 509
230442 553166 470
584114 761214 509
643535 508437 509
620572 875082 525
439287 416269 418
962862 20780 525
243024 192724 443
531569 966749 525
422695 965789 525
34693 627799 509
828945 231028 509
468330 595373 470
807876 153390 509
996251 857358 507
393873 524918 470
499005 649942 509
233036 276568 407
392251 706738 509
507916 712472 509
625127 993502 525
634422 476988 509
213505 225110 386
187234 766283 509
91521 974426 525
667891 732676 504
986021 657421 525
132622 952038 525
293775 730513 509
691155 581286 509
920682 218904 525
113790 36853 354
484796 278586 449
930625 33178 525
365451 277747 441
773018 676792 504
138312 480077 449
986908 497643 525
957489 726237 525
537732 180338 470
182226 977229 525
958347 899871 507
55778 667649 509
465470 874271 525
370698 589260 470
626179 363649 470
959312 388266 525
854548 851567 419
531967 590918 452
795041 534825 509
520797 145235 470
538446 701672 509
871230 86179 525
458256 881112 525
651205 571363 509
893059 685061 525
878708 933943 476
654394 809212 504
427930 729730 509
607636 712311 509
615781 601494 447
384129 23131 443
382427 159445 443
324047 445364 449
761372 146799 509
777776 199713 509
655508 247872 509
123294 587154 470
921049 263460 525
522848 516573 439
180856 6741 383
698088 792295 504
726161 400645 509
17804 9757 279
48527 87716 351
426176 876947 525
149102 497083 449
467262 262714 449
17004 224492 386
266969 736846 509
565319 938286 525
857495 807137 525
97899 696617 509
286128 816952 509
214846 888967 525
67326 36860 340
458037 279879 449
431269 111551 449
129077 565890 470
427867 651335 509
954179 171303 525
544404 181278 470
335361 105758 443
823870 798691 450
483414 578688 470
867926 206584 525
546055 720985 509
484335 590160 470
649379 341551 509
16162 174722 383
162097 874559 525
25245 716099 509
654111 843900 525
68287 998593 525
549767 97909 470
404052 851541 525
308702 440633 449
643338 71716 509
161645 864419 525
852122 490657 525
785299 111947 509
891045 356213 525
260931 68556 443
966934 962655 414
907239 608100 525
335223 14207 443
3650 726528 509
493182 728572 509
416764 385511 449
106535 78326 354
340152 107982 443
429595 356401 449
925083 3776 525
854267 279456 525
285863 825788 509
149753 895982 525
541199 3298 470
569926 138602 470
274975 802405 509
145213 448942 449
259387 218245 443
210430 827633 509
273170 571317 470
907936 294057 525
434499 18644 449
869516 463689 525
638476 261510 509
319013 867373 525
272596 633167 509
120313 76822 354
693960 111302 509
401000 834125 509
391462 135700 443
557204 375821 470
761683 976756 525
121458 606560 470
62159 217730 386
187348 613801 470
839877 586726 525
918212 537952 525
696475 500444 509
489923 668097 509
905401 423545 525
5189 598726 470
543521 790048 509
71863 623209 470
828982 841372 525
536029 173328 470
930242 971223 507
950675 661451 525
571721 748147 509
543553 660710 509
123462 586366 470
208817 829238 509
746500 861137 525
