793105 34275 509
778587 182969 509
805363 537527 509
926533 236242 525
399021 651365 509
843545 768518 525
621775 877865 525
168529 723630 509
348268 850382 525
653593 823072 504
391076 303515 441
36061 550651 470
613058 820813 509
877775 937418 476
330490 137616 443
942792 361781 525
519510 595083 452
728242 448157 509
441042 567323 470
625162 880572 525
235044 466392 449
55303 552281 470
64136 402467 443
260134 4214 443
165037 100427 383
263565 58326 443
726177 469778 509
16309 108121 354
205670 205401 355
505011 291865 449
842980 991676 507
394332 803665 509
379534 536228 470
444065 122319 449
387682 809088 509
402385 691991 509
164704 852760 525
274182 817061 509
233832 787164 509
503059 127806 449
704875 855378 525
408167 171588 443
57374 174921 383
483979 110589 449
531047 840571 525
204236 952859 525
904333 137956 525
791510 68738 509
401530 77358 443
952955 182079 525
110861 967725 525
824677 766455 468
387484 673846 509
976004 990930 427
187945 76053 383
988297 6397 525
856717 129169 525
344590 86507 443
917441 405932 525
498791 421680 444
842220 815514 525
102002 749302 509
182958 477661 449
909902 964870 507
640626 232527 509
526001 110823 470
769222 328630 509
982494 433507 525
788542 55898 509
855005 711641 525
611450 337028 470
157308 699793 509
414000 521224 470
26486 622542 470
19588 931381 525
898514 716191 525
315202 173349 443
113973 890380 525
505681 715980 509
893056 541391 525
239558 460467 449
436535 861033 525
765994 847467 525
701407 304528 509
369404 639911 509
492924 581706 470
445655 667322 509
458835 831909 509
885902 405473 525
633168 717987 504
785884 642448 504
675492 42755 509
501935 404473 449
406582 513060 470
429879 558750 470
224097 243470 443
473486 519502 470
883556 142065 525
84616 479380 449
905171 452296 525
827150 557334 509
900850 665625 525
374509 267485 441
293315 520404 470
834419 980941 525
328879 666003 509
577879 716713 509
187037 970716 525
234233 315537 407
482671 159246 449
632280 111190 509
999990 40230 525
400630 899131 525
532613 251008 470
226038 967177 525
939055 382193 525
344569 279860 389
919400 684382 525
58587 16899 340
435869 202109 449
687990 522713 509
440619 207343 449
805870 913594 525
844713 408043 525
474694 514230 470
52461 427779 449
383078 193476 443
355465 283550 441
866120 722366 525
722224 311742 509
86367 248935 443
808966 109278 509
834086 41253 509
211203 700369 509
443000 980800 525
207714 368571 443
155371 623086 470
359296 826636 509
413677 822056 509
455592 269191 449
154078 410380 449
374589 869749 525
568322 456000 470
903203 977628 507
674214 828311 504
179789 739348 509
181270 119466 383
194329 602692 470
725698 789884 468
840022 519892 525
343577 73240 443
557884 454379 470
257170 923604 525
891078 171046 525
670739 499674 509
257588 588805 470
253108 553489 470
503233 992097 525
565779 87301 470
63251 884302 525
603442 325532 470
475224 553277 470
831103 155960 509
629059 988626 525
252466 868290 525
956979 672653 525
846988 397245 525
395424 792104 509
127535 60026 354
404511 943743 525
483800 977352 525
841330 718132 525
138195 829495 509
151503 273558 443
609215 647694 509
298729 445342 449
522655 151934 470
185770 118894 383
568417 705379 509
611050 81115 470
761201 292295 509
459428 736006 509
463244 77968 449
684392 942222 525
54676 978097 525
829105 189508 509
237550 591249 470
84506 484256 449
631506 274334 509
988270 883575 507
596350 961582 525
949828 262866 525
930387 981416 507
787291 670207 504
311322 367427 441
951319 475821 525
772814 95194 509
83549 484058 449
602842 623790 447
238967 372371 441
530053 466093 470
370296 285787 441
117531 840495 525
440239 105654 449
531496 610122 452
713160 723207 411
602466 376130 470
470307 929523 525
821471 85102 509
624630 313106 470
593397 597471 372
346756 957911 525
730860 814139 468
833535 561391 509
324359 928453 525
451550 251823 449
868980 132458 525
633728 498466 509
341523 509075 449
131089 38542 354
273376 677283 509
39213 822942 509
803473 174743 509
182282 397336 443
263279 695774 509
141791 375060 443
11647 963645 525
346004 751350 509
480952 416378 444
865235 636410 525
675901 664852 442
325098 89515 443
64596 344350 443
805748 818722 406
922603 245783 525
303366 279900 389
55618 375575 443
407527 639480 509
364051 691253 509
210723 81328 383
965943 938205 507
47672 29104 324
747910 644941 504
314119 638130 509
44801 417315 449
76421 735233 509
469717 853810 525
359984 250026 441
55725 801712 509
467030 416239 444
