696464 990230 525
50595 420034 449
303382 893444 525
11784 200000 383
209854 400200 443
600906 712342 509
720622 736290 424
32138 432000 449
759269 890023 525
542661 723891 509
172315 200023 365
659121 738200 504
565826 567482 359
571415 720312 509
248632 392304 441
990977 990984 197
83542 102384 341
904185 914238 476
34029 502344 449
622427 723992 509
92207 102932 341
225963 234232 443
965640 978539 458
291603 302123 371
242018 434829 449
61108 392304 443
26791 40324 324
131007 403728 443
753197 948242 525
693629 723423 504
628699 630293 279
384589 403928 436
70330 73829 325
763 8349 262
28577 340000 443
919171 939185 476
456135 478239 444
32278 355835 443
287173 302492 389
111473 223938 386
919811 924583 445
715414 843924 525
833462 847384 525
351859 748394 509
902935 934824 476
8208 108439 354
16446 23483 279
811266 924859 525
965342 977284 458
519249 734892 509
282933 348249 441
90837 192384 383
5566 23471 279
153450 238492 443
474433 748394 509
93859 284910 443
685305 839204 525
24560 382493 443
658546 918392 525
12934 38492 324
645 1839 182
893067 924802 476
315551 848392 525
741482 839202 525
788487 849233 525
88438 89900 315
906980 982031 507
39388 402931 443
2481 30294 308
41643 73842 340
396193 829301 509
120869 392340 443
85453 183920 383
316238 403948 441
221164 290324 443
405842 483922 449
7624 29382 308
70636 83742 351
450981 784932 509
509735 857384 525
295003 348294 441
390671 848342 525
246586 634245 509
585533 743219 509
515148 748325 509
587242 847234 525
1821 38249 324
81660 103824 341
795676 943792 525
898571 973453 507
964860 986472 458
282542 403842 441
426682 658394 509
756763 867348 525
383612 674293 509
720679 843492 525
573001 743924 509
88332 283942 443
346992 482493 449
441842 663482 509
151150 342345 443
228093 657384 509
803947 938493 525
6968 482932 449
503628 847384 525
570227 749384 509
532516 634824 509
782261 839274 525
354139 463824 449
93029 380243 443
670706 748353 504
611100 847384 525
804866 920492 525
832877 859384 525
498194 503473 426
218034 748352 509
93358 283943 443
280360 748353 509
94692 748395 509
889212 904528 401
60754 610382 470
472528 509438 426
387130 784934 509
977894 988304 427
719308 839405 525
276890 583924 470
535521 638492 509
916729 940834 507
675566 738493 504
184434 403842 443
49358 53943 340
65 72485 340
56341 859350 525
3679 7583 262
9337 20493 279
186334 736284 509
864558 934802 476
164974 172384 352
334610 458930 449
984060 998230 440
99923 203945 383
40016 89301 351
392208 658392 509
631222 857384 525
548859 647483 509
431474 758393 509
190150 194038 347
38774 47583 314
532101 832495 509
4617 64738 340
8 82495 351
927268 982748 507
414338 567384 470
570140 758394 509
858266 958395 507
637843 748395 504
743441 847385 525
738138 857324 525
88833 204834 383
221205 537483 470
632324 758393 504
539804 647583 509
122352 283492 443
669691 758934 504
633425 748593 504
208782 473842 449
570692 758395 509
877768 984353 507
884325 893342 445
539525 574385 452
929527 959437 507
732341 857374 525
702805 837525 504
933631 944385 507
5383 24653 282
448850 857343 525
591584 596734 403
892842 940347 507
107407 384723 443
940030 953034 414
555792 556743 346
825781 853647 525
339838 445832 449
729317 847342 525
860532 865382 344
946024 953842 414
757528 857384 525
289947 394724 441
966081 973842 458
572617 657384 509
2268 310392 443
22907 34852 311
529681 638493 509
859831 930482 476
714893 749342 424
852878 883494 432
303336 343242 384
550203 557384 421
652519 783422 504
194707 203942 360
657022 748385 504
494416 546374 470
301703 463842 449
456555 564734 470
723910 785374 468
32612 473824 449
695788 847342 525
111724 347249 443
840332 854724 419
657409 839424 525
492078 637482 509
635931 748345 504
323466 354637 441
218978 416234 449
858380 934852 476
585673 746573 509
825522 894423 525
138361 146374 375
244233 253728 350
44095 447538 449
734774 834724 468
7299 84353 351
339429 475232 449
716766 827384 468
55926 637482 509
766152 793462 468
698968 699347 305
24500 25639 264
368472 463742 449
439234 473842 444
192746 394718 443
760401 783495 468
182439 536472 470
555072 647384 509
257235 463742 449
590385 647385 509
494475 748394 509
397328 536472 470
63660 83942 351
139 6473 262
69 74835 340
58356 83749 351
7696 77348 351
992 83728 351
495195 857389 525
85145 746385 509
543443 583942 452
741836 756374 424
618475 847343 525
284075 473842 449
